src/unimplemented/ShiftRegister/simulation/qsim/ShiftRegister.msim.vcd
$comment
	File created using the following command:
		vcd file ShiftRegister.msim.vcd -direction
$end
$date
	Thu Nov 23 19:23:12 2017
$end
$version
	ModelSim Version 10.5b
$end
$timescale
	1ps
$end

$scope module counter_3bits_vhd_vec_tst $end
$var wire 1 ! clk $end
$var wire 1 " count [2] $end
$var wire 1 # count [1] $end
$var wire 1 $ count [0] $end
$var wire 1 % enable $end

$scope module i1 $end
$var wire 1 & gnd $end
$var wire 1 ' vcc $end
$var wire 1 ( unknown $end
$var wire 1 ) devoe $end
$var wire 1 * devclrn $end
$var wire 1 + devpor $end
$var wire 1 , ww_devoe $end
$var wire 1 - ww_devclrn $end
$var wire 1 . ww_devpor $end
$var wire 1 / ww_enable $end
$var wire 1 0 ww_clk $end
$var wire 1 1 ww_count [2] $end
$var wire 1 2 ww_count [1] $end
$var wire 1 3 ww_count [0] $end
$var wire 1 4 \count[0]~output_o\ $end
$var wire 1 5 \count[1]~output_o\ $end
$var wire 1 6 \count[2]~output_o\ $end
$var wire 1 7 \clk~input_o\ $end
$var wire 1 8 \enable~input_o\ $end
$var wire 1 9 \count3[2]~2_combout\ $end
$var wire 1 : \count3[1]~1_combout\ $end
$var wire 1 ; \count3[0]~0_combout\ $end
$var wire 1 < count3 [2] $end
$var wire 1 = count3 [1] $end
$var wire 1 > count3 [0] $end
$upscope $end
$upscope $end
$enddefinitions $end
#0
$dumpvars
1!
0%
0&
1'
x(
1)
1*
1+
1,
1-
1.
0/
10
04
05
06
17
08
09
0:
0;
01
02
03
0<
0=
0>
0"
0#
0$
$end
#10000
0!
00
07
#15000
1!
10
17
#20000
0!
00
07
#25000
1!
10
17
#30000
0!
00
07
#35000
1!
10
17
#40000
1%
1/
18
1;
#45000
0!
00
07
#50000
1!
10
17
1>
1:
0;
14
13
1$
#55000
0!
00
07
#65000
1!
10
17
1=
0>
1;
04
15
03
12
0$
1#
#80000
0!
0%
00
0/
08
07
0;
#85000
1!
10
17
#90000
0!
00
07
#95000
1!
10
17
#100000
0!
00
07
#105000
1!
10
17
#115000
0!
00
07
#120000
1%
1/
18
1;
#125000
1!
10
17
1>
19
0:
0;
14
13
1$
#130000
0!
00
07
#150000
1!
10
17
1<
0=
0>
1;
04
05
16
03
02
11
0$
0#
1"
#160000
0%
0/
08
0;
#165000
0!
00
07
#170000
1!
10
17
#180000
0!
00
07
#185000
1!
10
17
#190000
0!
00
07
#195000
1!
10
17
#200000
0!
1%
00
1/
18
07
1;
#210000
1!
10
17
1>
1:
0;
14
13
1$
#235000
0!
00
07
#240000
0%
0/
08
0:
1;
#250000
1!
10
17
#260000
0!
00
07
#270000
1!
10
17
#275000
0!
00
07
#280000
1!
1%
10
1/
18
17
1:
0;
#285000
0!
00
07
#290000
1!
10
17
1=
0>
1;
04
15
03
12
0$
1#
#310000
0!
00
07
#320000
1!
0%
10
0/
08
17
1>
0;
09
0:
14
13
1$
#325000
0!
00
07
#330000
1!
10
17
0<
0=
0>
04
05
06
03
02
01
0$
0#
0"
#335000
0!
00
07
#340000
1!
10
17
#360000
0!
1%
00
1/
18
07
1;
#365000
1!
10
17
1>
1:
0;
14
13
1$
#370000
0!
00
07
#380000
1!
10
17
1=
0>
1;
04
15
03
12
0$
1#
#390000
0!
00
07
#400000
0%
0/
08
0;
#410000
1!
10
17
#415000
0!
00
07
#435000
1!
10
17
#440000
1%
1/
18
1;
#445000
0!
00
07
#450000
1!
10
17
1>
19
0:
0;
14
13
1$
#455000
0!
00
07
#475000
1!
10
17
1<
0=
0>
1;
04
05
16
03
02
11
0$
0#
1"
#480000
0%
0/
08
0;
#490000
0!
00
07
#495000
1!
10
17
#510000
0!
00
07
#520000
1%
1/
18
1;
#530000
1!
10
17
1>
1:
0;
14
13
1$
#540000
0!
00
07
#545000
1!
10
17
1=
0>
1;
04
15
03
12
0$
1#
#560000
0!
0%
00
0/
08
07
0;
#565000
1!
10
17
#575000
0!
00
07
#580000
1!
10
17
#590000
0!
00
07
#600000
1%
1/
18
1;
#610000
1!
10
17
1>
09
0:
0;
14
13
1$
#630000
0!
00
07
#635000
1!
10
17
0<
0=
0>
1;
04
05
06
03
02
01
0$
0#
0"
#640000
0%
0/
08
0;
#650000
0!
00
07
#680000
1%
1/
18
1;
#685000
1!
10
17
1>
1:
0;
14
13
1$
#695000
0!
00
07
#705000
1!
10
17
1=
0>
1;
04
15
03
12
0$
1#
#710000
0!
00
07
#720000
1!
0%
10
0/
08
17
1>
0;
1;
14
13
1$
#740000
0!
00
07
#760000
1!
1%
10
1/
18
17
19
0:
0;
#765000
0!
00
07
#775000
1!
10
17
1<
0=
0>
1;
04
05
16
03
02
11
0$
0#
1"
#785000
0!
00
07
#790000
1!
10
17
1>
1:
0;
14
13
1$
#800000
0%
0/
08
0:
1;
#820000
0!
00
07
#830000
1!
10
17
#835000
0!
00
07
#840000
1%
1/
18
1:
0;
#850000
1!
10
17
1=
0>
1;
04
15
03
12
0$
1#
#855000
0!
00
07
#860000
1!
10
17
1>
09
0:
0;
14
13
1$
#870000
0!
00
07
#880000
1!
0%
10
0/
08
17
0<
0=
0>
04
05
06
03
02
01
0$
0#
0"
#890000
0!
00
07
#895000
1!
10
17
#910000
0!
00
07
#915000
1!
10
17
#920000
0!
1%
00
1/
18
07
1;
#935000
1!
10
17
1>
1:
0;
14
13
1$
#945000
0!
00
07
#950000
1!
10
17
1=
0>
1;
04
15
03
12
0$
1#
#955000
0!
00
07
#960000
1!
0%
10
0/
08
17
1>
0;
1;
14
13
1$
#980000
0!
00
07
#990000
1!
10
17
#995000
0!
00
07
